…
No sequence found
No sequence found
No sequence found
No sequence found
No sequence found
No sequence found
No sequence found
No sequence found
No sequence found
No sequence found
No sequence found
No sequence found
No sequence found
No sequence found
# A tibble: 245 × 5
   name                          genus      species                floron radar
   <chr>                         <chr>      <chr>                  <lgl>  <lgl>
 1 Geranium lucidum              Geranium   lucidum                TRUE   FALSE
 2 Vulpia ciliata subsp. ciliata Vulpia     ciliata subsp. ciliata TRUE   FALSE
 3 Vulpia ciliata subsp. ambigua Vulpia     ciliata subsp. ambigua TRUE   FALSE
 4 Carex crawfordii              Carex      crawfordii             TRUE   FALSE
 5 Dysphania pumilio             Dysphania  pumilio                TRUE   FALSE
 6 Arctium minus                 Arctium    minus                  TRUE   TRUE 
 7 Bidens radiata                Bidens     radiata                TRUE   FALSE
 8 Bupleurum falcatum            Bupleurum  falcatum               TRUE   FALSE
 9 Conopodium majus              Conopodium majus                  TRUE   FALSE
10 Impatiens capensis            Impatiens  capensis               TRUE   FALSE
# ℹ 235 more rows
# ℹ Use `print(n = ...)` to see more rows
# A tibble: 244 × 5
   name                          genus      species                floron radar
   <chr>                         <chr>      <chr>                  <lgl>  <lgl>
 1 Geranium lucidum              Geranium   lucidum                TRUE   FALSE
 2 Vulpia ciliata subsp. ciliata Vulpia     ciliata subsp. ciliata TRUE   FALSE
 3 Vulpia ciliata subsp. ambigua Vulpia     ciliata subsp. ambigua TRUE   FALSE
 4 Carex crawfordii              Carex      crawfordii             TRUE   FALSE
 5 Dysphania pumilio             Dysphania  pumilio                TRUE   FALSE
 6 Arctium minus                 Arctium    minus                  TRUE   TRUE 
 7 Bidens radiata                Bidens     radiata                TRUE   FALSE
 8 Bupleurum falcatum            Bupleurum  falcatum               TRUE   FALSE
 9 Conopodium majus              Conopodium majus                  TRUE   FALSE
10 Impatiens capensis            Impatiens  capensis               TRUE   FALSE
# ℹ 234 more rows
# ℹ Use `print(n = ...)` to see more rows
…
