…
$trnL_ncbi1
$trnL_ncbi1
# A tibble: 4,554 × 21
   source id       gene  sequence    superkingdom kingdom phylum subphylum class subclass infraclass order
   <chr>  <chr>    <chr> <DNA>       <chr>        <chr>   <chr>  <chr>     <chr> <chr>    <chr>      <chr>
 1 NCBI   OP222085 trnL  TACTAAGTGA… Eukaryota    Viridi… Strep… Streptop… Magn… <NA>     <NA>       Sapi…
 2 NCBI   OP222084 trnL  TACTAAGTGA… Eukaryota    Viridi… Strep… Streptop… Magn… <NA>     <NA>       Sapi…
 3 NCBI   DQ978522 trnL  AAGTCCCTCT… Eukaryota    Viridi… Strep… Streptop… Magn… <NA>     <NA>       Sapi…
 4 NCBI   DQ978552 trnL  GGAAACCTAC… Eukaryota    Viridi… Strep… Streptop… Magn… <NA>     <NA>       Sapi…
 5 NCBI   DQ978551 trnL  GGTATGGAAA… Eukaryota    Viridi… Strep… Streptop… Magn… <NA>     <NA>       Sapi…
 6 NCBI   OR571764 trnL  TACGGACTTA… Eukaryota    Viridi… Strep… Streptop… Magn… <NA>     <NA>       Aste…
 7 NCBI   MT027343 trnL  GAGCCTTGGT… Eukaryota    Viridi… Strep… Streptop… Magn… <NA>     <NA>       Lami…
 8 NCBI   MK800983 trnL  AACCTCTGAG… Eukaryota    Viridi… Strep… Streptop… Magn… <NA>     <NA>       Aste…
 9 NCBI   MK800982 trnL  GACTTAATTG… Eukaryota    Viridi… Strep… Streptop… Magn… <NA>     <NA>       Aste…
10 NCBI   GQ175798 COI   ATAGCTATTG… Eukaryota    Metazoa Arthr… Hexapoda  Inse… Pterygo… Neoptera   Dipt…
# ℹ 4,544 more rows
# ℹ 9 more variables: suborder <chr>, infraorder <chr>, superfamily <chr>, family <chr>, genus <chr>,
#   species <chr>, country_location <chr>, latitude <dbl>, longitude <dbl>
# ℹ Use `print(n = ...)` to see more rows
# A tibble: 4,554 × 21
   source id       gene  sequence    superkingdom kingdom phylum subphylum class subclass infraclass order
   <chr>  <chr>    <chr> <DNA>       <chr>        <chr>   <chr>  <chr>     <chr> <chr>    <chr>      <chr>
 1 NCBI   OP222085 trnL  TACTAAGTGA… Eukaryota    Viridi… Strep… Streptop… Magn… <NA>     <NA>       Sapi…
 2 NCBI   OP222084 trnL  TACTAAGTGA… Eukaryota    Viridi… Strep… Streptop… Magn… <NA>     <NA>       Sapi…
 3 NCBI   DQ978522 trnL  AAGTCCCTCT… Eukaryota    Viridi… Strep… Streptop… Magn… <NA>     <NA>       Sapi…
 4 NCBI   DQ978552 trnL  GGAAACCTAC… Eukaryota    Viridi… Strep… Streptop… Magn… <NA>     <NA>       Sapi…
 5 NCBI   DQ978551 trnL  GGTATGGAAA… Eukaryota    Viridi… Strep… Streptop… Magn… <NA>     <NA>       Sapi…
 6 NCBI   OR571764 trnL  TACGGACTTA… Eukaryota    Viridi… Strep… Streptop… Magn… <NA>     <NA>       Aste…
 7 NCBI   MT027343 trnL  GAGCCTTGGT… Eukaryota    Viridi… Strep… Streptop… Magn… <NA>     <NA>       Lami…
 8 NCBI   MK800983 trnL  AACCTCTGAG… Eukaryota    Viridi… Strep… Streptop… Magn… <NA>     <NA>       Aste…
 9 NCBI   MK800982 trnL  GACTTAATTG… Eukaryota    Viridi… Strep… Streptop… Magn… <NA>     <NA>       Aste…
10 NCBI   GQ175798 COI   ATAGCTATTG… Eukaryota    Metazoa Arthr… Hexapoda  Inse… Pterygo… Neoptera   Dipt…
# ℹ 4,544 more rows
# ℹ 9 more variables: suborder <chr>, infraorder <chr>, superfamily <chr>, family <chr>, genus <chr>,
#   species <chr>, country_location <chr>, latitude <dbl>, longitude <dbl>
# ℹ Use `print(n = ...)` to see more rows


$trnL_ncbi2
$trnL_ncbi2
# A tibble: 1,933 × 21
   source id       gene  sequence    superkingdom kingdom phylum subphylum class subclass infraclass order
   <chr>  <chr>    <chr> <DNA>       <chr>        <chr>   <chr>  <chr>     <chr> <chr>    <chr>      <chr>
 1 NCBI   FJ404979 <NA>  AGCTTGAGCC… Eukaryota    Viridi… Strep… Streptop… Magn… <NA>     <NA>       Cary…
 2 NCBI   HE603339 <NA>  TTGGTATGGA… Eukaryota    Viridi… Strep… Streptop… Magn… <NA>     <NA>       Ranu…
 3 NCBI   KP764734 <NA>  ATCACACTAA… Eukaryota    Viridi… Strep… Streptop… Magn… <NA>     <NA>       Ranu…
 4 NCBI   KP764724 trnL  TCAGAGAAAC… Eukaryota    Viridi… Strep… Streptop… Magn… <NA>     <NA>       Ranu…
 5 NCBI   FJ012026 trnF  GTTTGCCTCC… Eukaryota    Viridi… Strep… Streptop… Magn… <NA>     <NA>       Faga…
 6 NCBI   LR606669 <NA>  GGAAACTAAC… Eukaryota    Viridi… Strep… Streptop… Magn… Petrosa… <NA>       Poal…
 7 NCBI   EF137598 <NA>  TGGTATGGAA… Eukaryota    Viridi… Strep… Streptop… Magn… Petrosa… <NA>       Poal…
 8 NCBI   MN662577 <NA>  AACCTACCAA… Eukaryota    Viridi… Strep… Streptop… Magn… <NA>     <NA>       Rosa…
 9 NCBI   KC206836 trnL  GAACCTACCA… Eukaryota    Viridi… Strep… Streptop… Magn… <NA>     <NA>       Rosa…
10 NCBI   KC206822 trnL  GAACCTACCA… Eukaryota    Viridi… Strep… Streptop… Magn… <NA>     <NA>       Rosa…
# ℹ 1,923 more rows
# ℹ 9 more variables: suborder <chr>, infraorder <chr>, superfamily <chr>, family <chr>, genus <chr>,
#   species <chr>, country_location <chr>, latitude <dbl>, longitude <dbl>
# ℹ Use `print(n = ...)` to see more rows
# A tibble: 1,933 × 21
   source id       gene  sequence    superkingdom kingdom phylum subphylum class subclass infraclass order
   <chr>  <chr>    <chr> <DNA>       <chr>        <chr>   <chr>  <chr>     <chr> <chr>    <chr>      <chr>
 1 NCBI   FJ404979 <NA>  AGCTTGAGCC… Eukaryota    Viridi… Strep… Streptop… Magn… <NA>     <NA>       Cary…
 2 NCBI   HE603339 <NA>  TTGGTATGGA… Eukaryota    Viridi… Strep… Streptop… Magn… <NA>     <NA>       Ranu…
 3 NCBI   KP764734 <NA>  ATCACACTAA… Eukaryota    Viridi… Strep… Streptop… Magn… <NA>     <NA>       Ranu…
 4 NCBI   KP764724 trnL  TCAGAGAAAC… Eukaryota    Viridi… Strep… Streptop… Magn… <NA>     <NA>       Ranu…
 5 NCBI   FJ012026 trnF  GTTTGCCTCC… Eukaryota    Viridi… Strep… Streptop… Magn… <NA>     <NA>       Faga…
 6 NCBI   LR606669 <NA>  GGAAACTAAC… Eukaryota    Viridi… Strep… Streptop… Magn… Petrosa… <NA>       Poal…
 7 NCBI   EF137598 <NA>  TGGTATGGAA… Eukaryota    Viridi… Strep… Streptop… Magn… Petrosa… <NA>       Poal…
 8 NCBI   MN662577 <NA>  AACCTACCAA… Eukaryota    Viridi… Strep… Streptop… Magn… <NA>     <NA>       Rosa…
 9 NCBI   KC206836 trnL  GAACCTACCA… Eukaryota    Viridi… Strep… Streptop… Magn… <NA>     <NA>       Rosa…
10 NCBI   KC206822 trnL  GAACCTACCA… Eukaryota    Viridi… Strep… Streptop… Magn… <NA>     <NA>       Rosa…
# ℹ 1,923 more rows
# ℹ 9 more variables: suborder <chr>, infraorder <chr>, superfamily <chr>, family <chr>, genus <chr>,
#   species <chr>, country_location <chr>, latitude <dbl>, longitude <dbl>
# ℹ Use `print(n = ...)` to see more rows


$trnL_ncbi3
$trnL_ncbi3
# A tibble: 1,369 × 21
   source id       gene     sequence superkingdom kingdom phylum subphylum class subclass infraclass order
   <chr>  <chr>    <chr>    <DNA>    <chr>        <chr>   <chr>  <chr>     <chr> <chr>    <chr>      <chr>
 1 NCBI   MW289856 <NA>     CTACTAA… Eukaryota    Viridi… Strep… Streptop… Magn… <NA>     <NA>       Cary…
 2 NCBI   MH560982 <NA>     TCAGAGA… Eukaryota    Viridi… Strep… Streptop… Magn… <NA>     <NA>       Cary…
 3 NCBI   MF083870 <NA>     GAGCCTT… Eukaryota    Viridi… Strep… Streptop… Magn… <NA>     <NA>       Cary…
 4 NCBI   OR892106 trnL-UAA GACTTAA… Eukaryota    Viridi… Strep… Streptop… Magn… <NA>     <NA>       Lami…
 5 NCBI   LC133026 <NA>     CTACTAA… Eukaryota    Viridi… Strep… Streptop… Magn… <NA>     <NA>       Lami…
 6 NCBI   LC133025 <NA>     CTACTAA… Eukaryota    Viridi… Strep… Streptop… Magn… <NA>     <NA>       Lami…
 7 NCBI   LC133024 <NA>     CTACTAA… Eukaryota    Viridi… Strep… Streptop… Magn… <NA>     <NA>       Lami…
 8 NCBI   LC133023 <NA>     CTACTAA… Eukaryota    Viridi… Strep… Streptop… Magn… <NA>     <NA>       Lami…
 9 NCBI   KT026470 rpl32    GAAATCT… Eukaryota    Viridi… Strep… Streptop… Magn… <NA>     <NA>       Lami…
10 NCBI   JN663526 <NA>     TTTCTCT… Eukaryota    Viridi… Strep… Streptop… Magn… <NA>     <NA>       Lami…
# ℹ 1,359 more rows
# ℹ 9 more variables: suborder <chr>, infraorder <chr>, superfamily <chr>, family <chr>, genus <chr>,
#   species <chr>, country_location <chr>, latitude <dbl>, longitude <dbl>
# ℹ Use `print(n = ...)` to see more rows
# A tibble: 1,369 × 21
   source id       gene     sequence superkingdom kingdom phylum subphylum class subclass infraclass order
   <chr>  <chr>    <chr>    <DNA>    <chr>        <chr>   <chr>  <chr>     <chr> <chr>    <chr>      <chr>
 1 NCBI   MW289856 <NA>     CTACTAA… Eukaryota    Viridi… Strep… Streptop… Magn… <NA>     <NA>       Cary…
 2 NCBI   MH560982 <NA>     TCAGAGA… Eukaryota    Viridi… Strep… Streptop… Magn… <NA>     <NA>       Cary…
 3 NCBI   MF083870 <NA>     GAGCCTT… Eukaryota    Viridi… Strep… Streptop… Magn… <NA>     <NA>       Cary…
 4 NCBI   OR892106 trnL-UAA GACTTAA… Eukaryota    Viridi… Strep… Streptop… Magn… <NA>     <NA>       Lami…
 5 NCBI   LC133026 <NA>     CTACTAA… Eukaryota    Viridi… Strep… Streptop… Magn… <NA>     <NA>       Lami…
 6 NCBI   LC133025 <NA>     CTACTAA… Eukaryota    Viridi… Strep… Streptop… Magn… <NA>     <NA>       Lami…
 7 NCBI   LC133024 <NA>     CTACTAA… Eukaryota    Viridi… Strep… Streptop… Magn… <NA>     <NA>       Lami…
 8 NCBI   LC133023 <NA>     CTACTAA… Eukaryota    Viridi… Strep… Streptop… Magn… <NA>     <NA>       Lami…
 9 NCBI   KT026470 rpl32    GAAATCT… Eukaryota    Viridi… Strep… Streptop… Magn… <NA>     <NA>       Lami…
10 NCBI   JN663526 <NA>     TTTCTCT… Eukaryota    Viridi… Strep… Streptop… Magn… <NA>     <NA>       Lami…
# ℹ 1,359 more rows
# ℹ 9 more variables: suborder <chr>, infraorder <chr>, superfamily <chr>, family <chr>, genus <chr>,
#   species <chr>, country_location <chr>, latitude <dbl>, longitude <dbl>
# ℹ Use `print(n = ...)` to see more rows


$trnL_ncbi4
$trnL_ncbi4
# A tibble: 1,855 × 21
   source id       gene     sequence superkingdom kingdom phylum subphylum class subclass infraclass order
   <chr>  <chr>    <chr>    <DNA>    <chr>        <chr>   <chr>  <chr>     <chr> <chr>    <chr>      <chr>
 1 NCBI   OU026863 <NA>     TGGTATG… Eukaryota    Viridi… Strep… Streptop… Magn… <NA>     <NA>       Gent…
 2 NCBI   KP098190 trnL-UAA TGCTGAG… Eukaryota    Viridi… Strep… Streptop… Magn… <NA>     <NA>       Gent…
 3 NCBI   FJ695421 trnL     GAATCGA… Eukaryota    Viridi… Strep… Streptop… Magn… <NA>     <NA>       Gent…
 4 NCBI   PP412881 <NA>     GTCCTCT… Eukaryota    Viridi… Strep… Streptop… Magn… <NA>     <NA>       Rosa…
 5 NCBI   PP412880 <NA>     GTCCTCT… Eukaryota    Viridi… Strep… Streptop… Magn… <NA>     <NA>       Rosa…
 6 NCBI   PP412870 <NA>     CTGAGCT… Eukaryota    Viridi… Strep… Streptop… Magn… <NA>     <NA>       Rosa…
 7 NCBI   PP412869 <NA>     AGCTATC… Eukaryota    Viridi… Strep… Streptop… Magn… <NA>     <NA>       Rosa…
 8 NCBI   PP401721 <NA>     GACCATT… Eukaryota    Viridi… Strep… Streptop… Magn… <NA>     <NA>       Rosa…
 9 NCBI   PP401720 <NA>     ATAGGAC… Eukaryota    Viridi… Strep… Streptop… Magn… <NA>     <NA>       Rosa…
10 NCBI   OR571840 trnL     AACCTAC… Eukaryota    Viridi… Strep… Streptop… Magn… <NA>     <NA>       Rosa…
# ℹ 1,845 more rows
# ℹ 9 more variables: suborder <chr>, infraorder <chr>, superfamily <chr>, family <chr>, genus <chr>,
#   species <chr>, country_location <chr>, latitude <dbl>, longitude <dbl>
# ℹ Use `print(n = ...)` to see more rows
# A tibble: 1,855 × 21
   source id       gene     sequence superkingdom kingdom phylum subphylum class subclass infraclass order
   <chr>  <chr>    <chr>    <DNA>    <chr>        <chr>   <chr>  <chr>     <chr> <chr>    <chr>      <chr>
 1 NCBI   OU026863 <NA>     TGGTATG… Eukaryota    Viridi… Strep… Streptop… Magn… <NA>     <NA>       Gent…
 2 NCBI   KP098190 trnL-UAA TGCTGAG… Eukaryota    Viridi… Strep… Streptop… Magn… <NA>     <NA>       Gent…
 3 NCBI   FJ695421 trnL     GAATCGA… Eukaryota    Viridi… Strep… Streptop… Magn… <NA>     <NA>       Gent…
 4 NCBI   PP412881 <NA>     GTCCTCT… Eukaryota    Viridi… Strep… Streptop… Magn… <NA>     <NA>       Rosa…
 5 NCBI   PP412880 <NA>     GTCCTCT… Eukaryota    Viridi… Strep… Streptop… Magn… <NA>     <NA>       Rosa…
 6 NCBI   PP412870 <NA>     CTGAGCT… Eukaryota    Viridi… Strep… Streptop… Magn… <NA>     <NA>       Rosa…
 7 NCBI   PP412869 <NA>     AGCTATC… Eukaryota    Viridi… Strep… Streptop… Magn… <NA>     <NA>       Rosa…
 8 NCBI   PP401721 <NA>     GACCATT… Eukaryota    Viridi… Strep… Streptop… Magn… <NA>     <NA>       Rosa…
 9 NCBI   PP401720 <NA>     ATAGGAC… Eukaryota    Viridi… Strep… Streptop… Magn… <NA>     <NA>       Rosa…
10 NCBI   OR571840 trnL     AACCTAC… Eukaryota    Viridi… Strep… Streptop… Magn… <NA>     <NA>       Rosa…
# ℹ 1,845 more rows
# ℹ 9 more variables: suborder <chr>, infraorder <chr>, superfamily <chr>, family <chr>, genus <chr>,
#   species <chr>, country_location <chr>, latitude <dbl>, longitude <dbl>
# ℹ Use `print(n = ...)` to see more rows
…
